{
    "defaultSeverity": "error",
    "extends": [
        "tslint:recommended"
    ],
    "jsRules": {},
    "rules": {
        "arrow-parens": [true, "ban-single-arg-parens"],
        "curly": [true, "ignore-same-line"],
        "interface-name": false,
        "object-literal-sort-keys": false,
        "one-line": [true],
        "trailing-comma": [
            true,
            {
              "multiline": {
                "objects": "never",
                "arrays": "never",
                "functions": "never",
                "typeLiterals": "ignore"
              },
              "esSpecCompliant": true
            }
          ]
    },
    "rulesDirectory": [],
    "linterOptions": {
        "exclude": [
            "**/src/gemini-mark.ts"
        ]
    }
}